Week 2: Foundational Skills
…
---

# 4. `select()`

```r
library(dplyr)

storms %>% 
  select(name, year, month, day, hour, status)
```

```
## # A tibble: 10,010 × 6
##    name   year month   day  hour status             
##    <chr> <dbl> <dbl> <int> <dbl> <chr>              
##  1 Amy    1975     6    27     0 tropical depression
##  2 Amy    1975     6    27     6 tropical depression
##  3 Amy    1975     6    27    12 tropical depression
##  4 Amy    1975     6    27    18 tropical depression
##  5 Amy    1975     6    28     0 tropical depression
##  6 Amy    1975     6    28     6 tropical depression
##  7 Amy    1975     6    28    12 tropical depression
##  8 Amy    1975     6    28    18 tropical depression
##  9 Amy    1975     6    29     0 tropical storm     
## 10 Amy    1975     6    29     6 tropical storm     
## # … with 10,000 more rows
```

---

# 4. `filter()`

```r
library(dplyr)

storms %>% 
  filter(month == 8)
```

```
## # A tibble: 2,400 × 13
##    name      year month   day  hour   lat  long status   category  wind pressure
##    <chr>    <dbl> <dbl> <int> <dbl> <dbl> <dbl> <chr>    <ord>    <int>    <int>
##  1 Caroline  1975     8    24    12  22.4 -69.8 tropica… -1          25     1011
##  2 Caroline  1975     8    24    18  21.9 -71.1 tropica… -1          25     1011
##  3 Caroline  1975     8    25     0  21.6 -72.5 tropica… -1          25     1010
##  4 Caroline  1975     8    25     6  21.2 -73.8 tropica… -1          25     1010
##  5 Caroline  1975     8    25    12  20.9 -75.1 tropica… -1          25     1011
##  6 Caroline  1975     8    25    18  20.6 -76.4 tropica… -1          25     1011
##  7 Caroline  1975     8    26     0  20.4 -77.7 tropica… -1          25     1011
##  8 Caroline  1975     8    26     6  20.3 -79   tropica… -1          25     1011
##  9 Caroline  1975     8    26    12  20.2 -80.3 tropica… -1          25     1012
## 10 Caroline  1975     8    26    18  20.2 -81.6 tropica… -1          25     1012
## # … with 2,390 more rows, and 2 more variables: ts_diameter <dbl>,
## #   hu_diameter <dbl>
```

---

# 4. `arrange()`

```r
library(dplyr)

storms %>% 
  arrange(hour)
```

```
## # A tibble: 10,010 × 13
##    name      year month   day  hour   lat  long status   category  wind pressure
##    <chr>    <dbl> <dbl> <int> <dbl> <dbl> <dbl> <chr>    <ord>    <int>    <int>
##  1 Amy       1975     6    27     0  27.5 -79   tropica… -1          25     1013
##  2 Amy       1975     6    28     0  31.5 -78.8 tropica… -1          25     1012
##  3 Amy       1975     6    29     0  34.4 -75.8 tropica… 0           35     1004
##  4 Amy       1975     6    30     0  34.3 -71.6 tropica… 0           50      998
##  5 Amy       1975     7     1     0  36.2 -69.8 tropica… 0           60      984
##  6 Amy       1975     7     2     0  37.4 -66.7 tropica… 0           60      984
##  7 Amy       1975     7     3     0  37.7 -62.8 tropica… 0           55      986
##  8 Amy       1975     7     4     0  42.5 -54.8 tropica… 0           50      986
##  9 Caroline  1975     8    25     0  21.6 -72.5 tropica… -1          25     1010
## 10 Caroline  1975     8    26     0  20.4 -77.7 tropica… -1          25     1011
## # … with 10,000 more rows, and 2 more variables: ts_diameter <dbl>,
## #   hu_diameter <dbl>
```
---

# 4. Putting it together

```r
library(dplyr)

storms %>% 
  select(name, year, month, day, hour, status) %>% 
  filter(month == 8) %>% 
  arrange(hour)
```

```
## # A tibble: 2,400 × 6
##    name      year month   day  hour status             
##    <chr>    <dbl> <dbl> <int> <dbl> <chr>              
##  1 Caroline  1975     8    25     0 tropical depression
##  2 Caroline  1975     8    26     0 tropical depression
##  3 Caroline  1975     8    27     0 tropical depression
##  4 Caroline  1975     8    28     0 tropical depression
##  5 Caroline  1975     8    29     0 tropical depression
##  6 Caroline  1975     8    30     0 hurricane          
##  7 Caroline  1975     8    31     0 hurricane          
##  8 Doris     1975     8    30     0 tropical storm     
##  9 Doris     1975     8    31     0 hurricane          
## 10 Belle     1976     8     7     0 tropical storm     
## # … with 2,390 more rows
```
…
What is one thing that is different between `storms_in_august` and `storms` ?

---

# 4. Assignment operator

```r
storms
```

```
## # A tibble: 10,010 × 13
##    name   year month   day  hour   lat  long status      category  wind pressure
##    <chr> <dbl> <dbl> <int> <dbl> <dbl> <dbl> <chr>       <ord>    <int>    <int>
##  1 Amy    1975     6    27     0  27.5 -79   tropical d… -1          25     1013
##  2 Amy    1975     6    27     6  28.5 -79   tropical d… -1          25     1013
##  3 Amy    1975     6    27    12  29.5 -79   tropical d… -1          25     1013
##  4 Amy    1975     6    27    18  30.5 -79   tropical d… -1          25     1013
##  5 Amy    1975     6    28     0  31.5 -78.8 tropical d… -1          25     1012
##  6 Amy    1975     6    28     6  32.4 -78.7 tropical d… -1          25     1012
##  7 Amy    1975     6    28    12  33.3 -78   tropical d… -1          25     1011
##  8 Amy    1975     6    28    18  34   -77   tropical d… -1          30     1006
##  9 Amy    1975     6    29     0  34.4 -75.8 tropical s… 0           35     1004
## 10 Amy    1975     6    29     6  34   -74.8 tropical s… 0           40     1002
## # … with 10,000 more rows, and 2 more variables: ts_diameter <dbl>,
## #   hu_diameter <dbl>
```

---

# 4. Assignment operator

```r
storms_in_august
```

```
## # A tibble: 2,400 × 6
##    name      year month   day  hour status             
##    <chr>    <dbl> <dbl> <int> <dbl> <chr>              
##  1 Caroline  1975     8    25     0 tropical depression
##  2 Caroline  1975     8    26     0 tropical depression
##  3 Caroline  1975     8    27     0 tropical depression
##  4 Caroline  1975     8    28     0 tropical depression
##  5 Caroline  1975     8    29     0 tropical depression
##  6 Caroline  1975     8    30     0 hurricane          
##  7 Caroline  1975     8    31     0 hurricane          
##  8 Doris     1975     8    30     0 tropical storm     
##  9 Doris     1975     8    31     0 hurricane          
## 10 Belle     1976     8     7     0 tropical storm     
## # … with 2,390 more rows
```
…
