Week 13 - Basic advanced techniques
…
```r
ug_data <- read_csv(here("content", "data", "undergrad_data.csv"))

vis_dat(ug_data)
```

<img src="week12-slides_files/figure-html/unnamed-chunk-8-1.png" style="display: block; margin: auto;" />

```r
na.omit(ug_data)
```

```
## # A tibble: 419 × 29
##     ...1 Stud_ID   PROJ_TOTAL Proj01 Proj02 Proj03 Proj04 Proj05 Proj06 Proj07
##    <dbl> <chr>          <dbl>  <dbl>  <dbl>  <dbl>  <dbl>  <dbl>  <dbl>  <dbl>
##  1     1 e75ab8254        347     14     19     13     25     27     35     40
##  2     2 07ee7a263        427     14     20     20     38     45     42     41
##  3     4 52fb2d1ca        397     14     18     19      0     43     43     50
##  4     5 a4d76f570        316     14     20     12     36      8     34      0
##  5     6 94ea75daa        435     14     20     19     36     45     45     50
##  6     7 5e9c38d44        375     13     20     20     36     43     38     46
##  7    10 21d036526        354     13     18     17     32     40     33     16
##  8    11 3fc8237b5        295     13     20     20     34     43     41     50
##  9    14 7e2674224        441     14     20     20     38     44     45     50
## 10    15 bc0032340        385     14     20     10     27     38     34     50
## # … with 409 more rows, and 19 more variables: Proj08 <dbl>, Proj09 <dbl>,
## #   Proj10 <dbl>, Proj11 <dbl>, Total_Pts <dbl>, Exam1 <dbl>, Exam2 <dbl>,
## #   Exam3 <dbl>, Prob_solve_pre <dbl>, Prob_solve_post <dbl>,
## #   extraversion <dbl>, agreeableness <dbl>, conscient. <dbl>, stability <dbl>,
## #   openness <dbl>, Metacog. <dbl>, SelfEfficacy <dbl>, IntGoalOrient <dbl>,
## #   ExtGoalOrient <dbl>
```
…
