Week 9 - Models and Shiny
…
---

### B. A buffet of models

There is a _lot_ we can do with a linear regression model!

```r
d <- read_csv("https://raw.githubusercontent.com/data-edu/dataedu/master/data-raw/wt01_online-science-motivation/processed/sci_mo_processed.csv")

d
```

```
## # A tibble: 603 × 30
##    student_id course_id     total_points_poss… total_points_ea… percentage_earn…
##         <dbl> <chr>                      <dbl>            <dbl>            <dbl>
##  1      43146 FrScA-S216-02               3280             2220            0.677
##  2      44638 OcnA-S116-01                3531             2672            0.757
##  3      47448 FrScA-S216-01               2870             1897            0.661
##  4      47979 OcnA-S216-01                4562             3090            0.677
##  5      48797 PhysA-S116-01               2207             1910            0.865
##  6      51943 FrScA-S216-03               4208             3596            0.855
##  7      52326 AnPhA-S216-01               4325             2255            0.521
##  8      52446 PhysA-S116-01               2086             1719            0.824
##  9      53447 FrScA-S116-01               4655             3149            0.676
## 10      53475 FrScA-S116-02               1710             1402            0.820
## # … with 593 more rows, and 25 more variables: subject <chr>, semester <chr>,
## #   section <chr>, Gradebook_Item <chr>, Grade_Category <lgl>,
## #   FinalGradeCEMS <dbl>, Points_Possible <dbl>, Points_Earned <dbl>,
## #   Gender <chr>, q1 <dbl>, q2 <dbl>, q3 <dbl>, q4 <dbl>, q5 <dbl>, q6 <dbl>,
## #   q7 <dbl>, q8 <dbl>, q9 <dbl>, q10 <dbl>, TimeSpent <dbl>,
## #   TimeSpent_hours <dbl>, TimeSpent_std <dbl>, int <dbl>, pc <dbl>, uv <dbl>
```
…
