Week 3: ‘Tidying’ data
…
```
## [1] "X1" "X2" "X3" "X4"
```

```r
colnames(data) <- c("id", "content", "session_id", "question_id")

data
```

```
## # A tibble: 2,396 × 4
##       id content    session_id                         question_id
##    <dbl> <chr>      <chr>                                    <dbl>
##  1    10 Ready      SM275024c5512ea0f626560c2a7c974a8b           1
##  2    11 I'm ready. SMe14d7954247d88c43cf6bd5e70f17cc2           1
##  3    12 3          SM4c0c4addefec91a5ad5d92230606d8ec           1
##  4    13 4          SMc559b03477909c853ba0bd7cbe745651           1
##  5    14 3          SM3465833f00a6119440163db13a729c4b           1
##  6    15 4          SMb2ce42bc10c0a75172640c7b728f80ad           1
##  7    16 3          SM11cb1f8d5bcf86ca43d8e8802820d80f           2
##  8    17 4          SM391e2a4f2315eceee4ba95fb04e12ca6           1
##  9    18 4          SMe0a1f06bff4a847ebf00f87fb2b6d38d           2
## 10    19 4          SM486683d9fab1f02610e44a130142475f           1
## # … with 2,386 more rows
```
…
