Week 4: ‘Tidying’ data 2
…
### 3. Grouped data operations and summaries

** Finding the mean wind speed for storms **

```r
library(dplyr)

storms %>% 
  group_by(name) %>% 
  summarize(mean_wind_speed = mean(wind))
```

```
## # A tibble: 198 × 2
##    name     mean_wind_speed
##    <chr>              <dbl>
##  1 AL011993            27.5
##  2 AL012000            25  
##  3 AL021992            29  
##  4 AL021994            24.2
##  5 AL021999            28.8
##  6 AL022000            29.2
##  7 AL022001            25  
##  8 AL022003            30  
##  9 AL022006            38  
## 10 AL031987            21.2
## # … with 188 more rows
```
…
### 3. Grouped data operations and summaries

** Finding the mean wind speed for storms and arranging **

```r
library(dplyr)

storms %>% 
  group_by(name) %>% 
  summarize(mean_wind_speed = mean(wind)) %>% 
  arrange(desc(mean_wind_speed))
```

```
## # A tibble: 198 × 2
##    name    mean_wind_speed
##    <chr>             <dbl>
##  1 Wilma              91.9
##  2 Luis               89.2
##  3 Hugo               88.1
##  4 David              86.8
##  5 Gonzalo            86.1
##  6 Ike                83.2
##  7 Igor               81.8
##  8 Joaquin            81.8
##  9 Rita               80.1
## 10 Gilbert            79.6
## # … with 188 more rows
```
…
