…
Let’s look at a bit of code together

What do you think this code will do?

sci_mo_processed %>% 
  filter(percentage_earned >= .60) %>% 
  select(student_id, course_id, percentage_earned))

Let’s look at a bit of code together

sci_mo_processed %>% 
  filter(percentage_earned >= .60) %>% 
  select(student_id, course_id, percentage_earned)

## # A tibble: 563 × 3
##    student_id course_id     percentage_earned
##         <dbl> <chr>                     <dbl>
##  1      43146 FrScA-S216-02             0.677
##  2      44638 OcnA-S116-01              0.757
##  3      47448 FrScA-S216-01             0.661
##  4      47979 OcnA-S216-01              0.677
##  5      48797 PhysA-S116-01             0.865
##  6      51943 FrScA-S216-03             0.855
##  7      52446 PhysA-S116-01             0.824
##  8      53447 FrScA-S116-01             0.676
##  9      53475 FrScA-S116-02             0.820
## 10      53475 FrScA-S216-01             0.808
## # … with 553 more rows
…
What do you think this code will do?

sci_mo_processed %>% 
  filter(percentage_earned >= .60) %>% 
  arrange(desc(percentage_earned)) %>% 
  select(student_id, course_id, percentage_earned, TimeSpent)

Let’s look at a bit of code together

sci_mo_processed %>% 
  filter(percentage_earned >= .60) %>% 
  select(student_id, course_id, percentage_earned, TimeSpent)

## # A tibble: 563 × 4
##    student_id course_id     percentage_earned TimeSpent
##         <dbl> <chr>                     <dbl>     <dbl>
##  1      43146 FrScA-S216-02             0.677   1555.  
##  2      44638 OcnA-S116-01              0.757   1383.  
##  3      47448 FrScA-S216-01             0.661    860.  
##  4      47979 OcnA-S216-01              0.677   1599.  
##  5      48797 PhysA-S116-01             0.865   1482.  
##  6      51943 FrScA-S216-03             0.855      3.45
##  7      52446 PhysA-S116-01             0.824   1390.  
##  8      53447 FrScA-S116-01             0.676   1479.  
##  9      53475 FrScA-S116-02             0.820     NA   
## 10      53475 FrScA-S216-01             0.808   1867.  
## # … with 553 more rows
…
