Week 11 - Functions and Iteration
…
### A. Functions

A function is a collection of code that:

- takes one or more inputs (most commonly in R, data!)
- and produces one or more forms of output (often, your data---transformed!)

You _already_ use functions all of the time:

```r
mpg
```

```
## # A tibble: 234 × 11
##    manufacturer model      displ  year   cyl trans drv     cty   hwy fl    class
##    <chr>        <chr>      <dbl> <int> <int> <chr> <chr> <int> <int> <chr> <chr>
##  1 audi         a4           1.8  1999     4 auto… f        18    29 p     comp…
##  2 audi         a4           1.8  1999     4 manu… f        21    29 p     comp…
##  3 audi         a4           2    2008     4 manu… f        20    31 p     comp…
##  4 audi         a4           2    2008     4 auto… f        21    30 p     comp…
##  5 audi         a4           2.8  1999     6 auto… f        16    26 p     comp…
##  6 audi         a4           2.8  1999     6 manu… f        18    26 p     comp…
##  7 audi         a4           3.1  2008     6 auto… f        18    27 p     comp…
##  8 audi         a4 quattro   1.8  1999     4 manu… 4        18    26 p     comp…
##  9 audi         a4 quattro   1.8  1999     4 auto… 4        16    25 p     comp…
## 10 audi         a4 quattro   2    2008     4 manu… 4        20    28 p     comp…
## # … with 224 more rows
```
…
### A. Functions

A function is a collection of code that:

- takes one or more inputs (most commonly in R, data!)
- and produces one or more forms of output (often, your data---transformed!)

You _already_ use functions all of the time:

```r
print(mpg)
```

```
## # A tibble: 234 × 11
##    manufacturer model      displ  year   cyl trans drv     cty   hwy fl    class
##    <chr>        <chr>      <dbl> <int> <int> <chr> <chr> <int> <int> <chr> <chr>
##  1 audi         a4           1.8  1999     4 auto… f        18    29 p     comp…
##  2 audi         a4           1.8  1999     4 manu… f        21    29 p     comp…
##  3 audi         a4           2    2008     4 manu… f        20    31 p     comp…
##  4 audi         a4           2    2008     4 auto… f        21    30 p     comp…
##  5 audi         a4           2.8  1999     6 auto… f        16    26 p     comp…
##  6 audi         a4           2.8  1999     6 manu… f        18    26 p     comp…
##  7 audi         a4           3.1  2008     6 auto… f        18    27 p     comp…
##  8 audi         a4 quattro   1.8  1999     4 manu… 4        18    26 p     comp…
##  9 audi         a4 quattro   1.8  1999     4 auto… 4        16    25 p     comp…
## 10 audi         a4 quattro   2    2008     4 manu… 4        20    28 p     comp…
## # … with 224 more rows
```

---

### A. Functions

**`select()` is a function**

```r
mpg %>% 
  select(model, displ, cyl)
```

```
## # A tibble: 234 × 3
##    model      displ   cyl
##    <chr>      <dbl> <int>
##  1 a4           1.8     4
##  2 a4           1.8     4
##  3 a4           2       4
##  4 a4           2       4
##  5 a4           2.8     6
##  6 a4           2.8     6
##  7 a4           3.1     6
##  8 a4 quattro   1.8     4
##  9 a4 quattro   1.8     4
## 10 a4 quattro   2       4
## # … with 224 more rows
```

---

### A. Functions

**`select()` and `filter()` are functions**

```r
mpg %>% 
  select(model, displ, cyl) %>% 
  filter(cyl == 6)
```

```
## # A tibble: 79 × 3
##    model      displ   cyl
##    <chr>      <dbl> <int>
##  1 a4           2.8     6
##  2 a4           2.8     6
##  3 a4           3.1     6
##  4 a4 quattro   2.8     6
##  5 a4 quattro   2.8     6
##  6 a4 quattro   3.1     6
##  7 a4 quattro   3.1     6
##  8 a6 quattro   2.8     6
##  9 a6 quattro   3.1     6
## 10 malibu       3.1     6
## # … with 69 more rows
```
…
### A. Functions

What if we wanted to scale the variables cty, hwy, and cyl? Imagine that cyl has a missing (`NA`) value.

```r
mpg %>% 
  mutate(cty_std = standardize_variable(cty),
         hwy_std = standardize_variable(hwy),
         cyl_std = standardize_variable(cyl, remove_na_values = TRUE)) %>% 
  select(cty_std, hwy_std, cyl_std, everything()) # bring the new variables to the beginning of the data frame
```

```
## # A tibble: 234 × 14
##    cty_std hwy_std cyl_std manufacturer model      displ  year   cyl trans drv  
##      <dbl>   <dbl>   <dbl> <chr>        <chr>      <dbl> <int> <int> <chr> <chr>
##  1   0.268   0.934 -1.17   audi         a4           1.8  1999     4 auto… f    
##  2   0.973   0.934 -1.17   audi         a4           1.8  1999     4 manu… f    
##  3   0.738   1.27  -1.17   audi         a4           2    2008     4 manu… f    
##  4   0.973   1.10  -1.17   audi         a4           2    2008     4 auto… f    
##  5  -0.202   0.430  0.0689 audi         a4           2.8  1999     6 auto… f    
##  6   0.268   0.430  0.0689 audi         a4           2.8  1999     6 manu… f    
##  7   0.268   0.598  0.0689 audi         a4           3.1  2008     6 auto… f    
##  8   0.268   0.430 -1.17   audi         a4 quattro   1.8  1999     4 manu… 4    
##  9  -0.202   0.262 -1.17   audi         a4 quattro   1.8  1999     4 auto… 4    
## 10   0.738   0.766 -1.17   audi         a4 quattro   2    2008     4 manu… 4    
## # … with 224 more rows, and 4 more variables: cty <int>, hwy <int>, fl <chr>,
## #   class <chr>
```
…
---

### B. Iteration

Another way of writing the above code in which we are scaling multiple variables:

```r
mpg %>% 
  mutate_at(vars(cty, hwy, cyl), standardize_variable) %>% 
  select(cty, hwy, cyl, everything()) # bring the transformed variables to the beginning of the data frame
```

```
## # A tibble: 234 × 11
##       cty   hwy     cyl manufacturer model  displ  year trans  drv   fl    class
##     <dbl> <dbl>   <dbl> <chr>        <chr>  <dbl> <int> <chr>  <chr> <chr> <chr>
##  1  0.268 0.934 -1.17   audi         a4       1.8  1999 auto(… f     p     comp…
##  2  0.973 0.934 -1.17   audi         a4       1.8  1999 manua… f     p     comp…
##  3  0.738 1.27  -1.17   audi         a4       2    2008 manua… f     p     comp…
##  4  0.973 1.10  -1.17   audi         a4       2    2008 auto(… f     p     comp…
##  5 -0.202 0.430  0.0689 audi         a4       2.8  1999 auto(… f     p     comp…
##  6  0.268 0.430  0.0689 audi         a4       2.8  1999 manua… f     p     comp…
##  7  0.268 0.598  0.0689 audi         a4       3.1  2008 auto(… f     p     comp…
##  8  0.268 0.430 -1.17   audi         a4 qu…   1.8  1999 manua… 4     p     comp…
##  9 -0.202 0.262 -1.17   audi         a4 qu…   1.8  1999 auto(… 4     p     comp…
## 10  0.738 0.766 -1.17   audi         a4 qu…   2    2008 manua… 4     p     comp…
## # … with 224 more rows
```
…
