Week 5 - Introduction to Data Viz
…
---

### 1B: How to visualize data?

Let's see how this might appear:

```r
data
```

```
## # A tibble: 1,618 × 2
##    name       value
##    <chr>      <dbl>
##  1 Question 1  2.90
##  2 Question 1  3.46
##  3 Question 1  2.80
##  4 Question 1  2.64
##  5 Question 1  3.06
##  6 Question 1  3.34
##  7 Question 1  4.36
##  8 Question 1  2.43
##  9 Question 1  2.58
## 10 Question 1  3.32
## # … with 1,608 more rows
```
…
