…
## ── Conflicts ────────────────────────────────────────── tidyverse_conflicts() ──
## x dplyr::filter() masks stats::filter()
## x dplyr::lag()    masks stats::lag()

Print a built-in dataset

Next, simply run msleep to view a dataset built-in to R:

msleep

## # A tibble: 83 × 11
##    name   genus vore  order conservation sleep_total sleep_rem sleep_cycle awake
##    <chr>  <chr> <chr> <chr> <chr>              <dbl>     <dbl>       <dbl> <dbl>
##  1 Cheet… Acin… carni Carn… lc                  12.1      NA        NA      11.9
##  2 Owl m… Aotus omni  Prim… <NA>                17         1.8      NA       7  
##  3 Mount… Aplo… herbi Rode… nt                  14.4       2.4      NA       9.6
##  4 Great… Blar… omni  Sori… lc                  14.9       2.3       0.133   9.1
##  5 Cow    Bos   herbi Arti… domesticated         4         0.7       0.667  20  
##  6 Three… Brad… herbi Pilo… <NA>                14.4       2.2       0.767   9.6
##  7 North… Call… carni Carn… vu                   8.7       1.4       0.383  15.3
##  8 Vespe… Calo… <NA>  Rode… <NA>                 7        NA        NA      17  
##  9 Dog    Canis carni Carn… domesticated        10.1       2.9       0.333  13.9
## 10 Roe d… Capr… herbi Arti… lc                   3        NA        NA      21  
## # … with 73 more rows, and 2 more variables: brainwt <dbl>, bodywt <dbl>
…
library(lubridate)

## 
## Attaching package: 'lubridate'

## The following objects are masked from 'package:base':
## 
##     date, intersect, setdiff, union

storms %>%
  mutate(date = make_date(year = year, month = month, day = day))

## # A tibble: 10,010 × 14
##    name   year month   day  hour   lat  long status      category  wind pressure
##    <chr> <dbl> <dbl> <int> <dbl> <dbl> <dbl> <chr>       <ord>    <int>    <int>
##  1 Amy    1975     6    27     0  27.5 -79   tropical d… -1          25     1013
##  2 Amy    1975     6    27     6  28.5 -79   tropical d… -1          25     1013
##  3 Amy    1975     6    27    12  29.5 -79   tropical d… -1          25     1013
##  4 Amy    1975     6    27    18  30.5 -79   tropical d… -1          25     1013
##  5 Amy    1975     6    28     0  31.5 -78.8 tropical d… -1          25     1012
##  6 Amy    1975     6    28     6  32.4 -78.7 tropical d… -1          25     1012
##  7 Amy    1975     6    28    12  33.3 -78   tropical d… -1          25     1011
##  8 Amy    1975     6    28    18  34   -77   tropical d… -1          30     1006
##  9 Amy    1975     6    29     0  34.4 -75.8 tropical s… 0           35     1004
## 10 Amy    1975     6    29     6  34   -74.8 tropical s… 0           40     1002
## # … with 10,000 more rows, and 3 more variables: ts_diameter <dbl>,
## #   hu_diameter <dbl>, date <date>
…
What rows typically represent:

What columns typically represent:

Selecting variables

Let’s select only a few variables.

gss_cat %>% 
  select(year, age, tvhours)

## # A tibble: 21,483 × 3
##     year   age tvhours
##    <int> <int>   <int>
##  1  2000    26      12
##  2  2000    48      NA
##  3  2000    67       2
##  4  2000    39       4
##  5  2000    25       1
##  6  2000    25      NA
##  7  2000    36       3
##  8  2000    44      NA
##  9  2000    44       0
## 10  2000    47       3
## # … with 21,473 more rows
…
gss_cat %>% 
  select()

## # A tibble: 21,483 × 0

Filtering variables

Next, let’s explore filtering variables. Check out and run the next chunk of code:

gss_cat %>% 
  filter(tvhours > 3)

## # A tibble: 3,318 × 9
##     year marital         age race  rincome        partyid  relig  denom  tvhours
##    <int> <fct>         <int> <fct> <fct>          <fct>    <fct>  <fct>    <int>
##  1  2000 Never married    26 White $8000 to 9999  Ind,nea… Prote… South…      12
##  2  2000 Never married    39 White Not applicable Ind,nea… Ortho… Not a…       4
##  3  2000 Married          40 Black $25000 or more Strong … Prote… Bapti…       7
##  4  2000 Widowed          89 White Not applicable Not str… Prote… Other…       4
##  5  2000 Divorced         72 White Not applicable Strong … Prote… South…       7
##  6  2000 Never married    43 White $20000 - 24999 Indepen… Catho… Not a…       4
##  7  2000 Married          52 White $3000 to 3999  Ind,nea… Prote… Presb…       4
##  8  2000 Married          56 White $25000 or more Not str… Prote… Episc…       5
##  9  2000 Never married    27 Black $25000 or more Strong … Prote… Am ba…       4
## 10  2000 Divorced         78 White Not applicable Ind,nea… Prote… South…       4
## # … with 3,308 more rows
…
## Error: Problem with `filter()` input `..2`.
## ℹ Input `..2` is `age`.
## x Input `..2` must be a logical vector, not a integer.

Arrange

Let’s arrange the data frame based on the tvhours variable:

gss_cat %>% 
  arrange(tvhours)

## # A tibble: 21,483 × 9
##     year marital         age race  rincome        partyid   relig denom  tvhours
##    <int> <fct>         <int> <fct> <fct>          <fct>     <fct> <fct>    <int>
##  1  2000 Married          44 White $25000 or more Not str … Prot… Other        0
##  2  2000 Never married    23 White $1000 to 2999  Strong d… Prot… Other        0
##  3  2000 Never married    32 White $25000 or more Not str … Cath… Not a…       0
##  4  2000 Divorced         39 White Refused        Independ… None  Not a…       0
##  5  2000 Separated        57 Black Not applicable Ind,near… None  Not a…       0
##  6  2000 Widowed          78 White Not applicable Not str … Prot… Unite…       0
##  7  2000 Married          45 Other Refused        Independ… None  Not a…       0
##  8  2000 Never married    28 White $25000 or more Other pa… Prot… No de…       0
##  9  2000 Widowed          65 White $6000 to 6999  Strong d… Cath… Not a…       0
## 10  2000 Never married    34 Black $10000 - 14999 Not str … None  Not a…       0
## # … with 21,473 more rows
…
