…
Stacking and dodging bars

By default, the geom we use for bar/column charts, geom_col(), “stacks” the bars
vertically.

First, run the following code:

storms %>% 
  group_by(year) %>% 
  summarize(mean_wind = mean(wind))

## # A tibble: 41 × 2
##     year mean_wind
##    <dbl>     <dbl>
##  1  1975      50.9
##  2  1976      59.9
##  3  1977      54.0
##  4  1978      40.5
##  5  1979      48.7
##  6  1980      53.7
##  7  1981      56.6
##  8  1982      49.5
##  9  1983      47.0
## 10  1984      51.4
## # … with 31 more rows
…
